{
  "Welcome to Travel Explore": "Bienvenue dans Travel Explore",
  "Plan your trip quick and easy with us": "Planifiez votre voyage rapidement et facilement avec nous.",
  "Select Language":"Choisir la langue",
  "Let us know?": "Faites le nous savoir?",
  "French": "Français",
  "Yes!!!": "Oui!!!",
  "NO :(": "Non :(",
  "Maybe :|": "Peut être :|",
  "Yes!!!!! We are glad you like it!!": "Oui!!!!! Nous sommes heureux que vous l'aimiez !!",
  "No:( We will try our best to improve.": "Non :(Nous ferons de notre mieux pour nous améliorer.",
  "Maybe? This is confusing.": "Peut être? Ceci est déroutant..",
  "Do you like This Travel App?": "Aimez-vous cette application de voyage?"

}